[
  {
    "athlete": "Wang Nan",
    "country": "China",
    "medals": {
      "gold": 4,
      "silver": 1,
      "bronze": 0,
      "total": 5
    },
    "medals_by_year": {
      "2000": {
        "gold": 2,
        "silver": 0,
        "bronze": 0,
        "total": 2
      },
      "2004": {
        "gold": 1,
        "silver": 0,
        "bronze": 0,
        "total": 1
      },
      "2008": {
        "gold": 1,
        "silver": 1,
        "bronze": 0,
        "total": 2
      }
    }
  },
  {
    "athlete": "Zhang Yining",
    "country": "China",
    "medals": {
      "gold": 4,
      "silver": 0,
      "bronze": 0,
      "total": 4
    },
    "medals_by_year": {
      "2004": {
        "gold": 2,
        "silver": 0,
        "bronze": 0,
        "total": 2
      },
      "2008": {
        "gold": 2,
        "silver": 0,
        "bronze": 0,
        "total": 2
      }
    }
  },
  {
    "athlete": "Ma Lin",
    "country": "China",
    "medals": {
      "gold": 3,
      "silver": 0,
      "bronze": 0,
      "total": 3
    },
    "medals_by_year": {
      "2004": {
        "gold": 1,
        "silver": 0,
        "bronze": 0,
        "total": 1
      },
      "2008": {
        "gold": 2,
        "silver": 0,
        "bronze": 0,
        "total": 2
      }
    }
  },
  {
    "athlete": "Wang Hao",
    "country": "China",
    "medals": {
      "gold": 2,
      "silver": 3,
      "bronze": 0,
      "total": 5
    },
    "medals_by_year": {
      "2004": {
        "gold": 0,
        "silver": 1,
        "bronze": 0,
        "total": 1
      },
      "2008": {
        "gold": 1,
        "silver": 1,
        "bronze": 0,
        "total": 2
      },
      "2012": {
        "gold": 1,
        "silver": 1,
        "bronze": 0,
        "total": 2
      }
    }
  },
  {
    "athlete": "Guo Yue",
    "country": "China",
    "medals": {
      "gold": 2,
      "silver": 0,
      "bronze": 2,
      "total": 4
    },
    "medals_by_year": {
      "2004": {
        "gold": 0,
        "silver": 0,
        "bronze": 1,
        "total": 1
      },
      "2008": {
        "gold": 1,
        "silver": 0,
        "bronze": 1,
        "total": 2
      },
      "2012": {
        "gold": 1,
        "silver": 0,
        "bronze": 0,
        "total": 1
      }
    }
  },
  {
    "athlete": "Wang Liqin",
    "country": "China",
    "medals": {
      "gold": 2,
      "silver": 0,
      "bronze": 2,
      "total": 4
    },
    "medals_by_year": {
      "2000": {
        "gold": 1,
        "silver": 0,
        "bronze": 0,
        "total": 1
      },
      "2004": {
        "gold": 0,
        "silver": 0,
        "bronze": 1,
        "total": 1
      },
      "2008": {
        "gold": 1,
        "silver": 0,
        "bronze": 1,
        "total": 2
      }
    }
  },
  {
    "athlete": "Li Xiaoxia",
    "country": "China",
    "medals": {
      "gold": 2,
      "silver": 0,
      "bronze": 0,
      "total": 2
    },
    "medals_by_year": {
      "2012": {
        "gold": 2,
        "silver": 0,
        "bronze": 0,
        "total": 2
      }
    }
  },
  {
    "athlete": "Zhang Jike",
    "country": "China",
    "medals": {
      "gold": 2,
      "silver": 0,
      "bronze": 0,
      "total": 2
    },
    "medals_by_year": {
      "2012": {
        "gold": 2,
        "silver": 0,
        "bronze": 0,
        "total": 2
      }
    }
  },
  {
    "athlete": "Yu Seung-Min",
    "country": "South Korea",
    "medals": {
      "gold": 1,
      "silver": 1,
      "bronze": 1,
      "total": 3
    },
    "medals_by_year": {
      "2004": {
        "gold": 1,
        "silver": 0,
        "bronze": 0,
        "total": 1
      },
      "2008": {
        "gold": 0,
        "silver": 0,
        "bronze": 1,
        "total": 1
      },
      "2012": {
        "gold": 0,
        "silver": 1,
        "bronze": 0,
        "total": 1
      }
    }
  },
  {
    "athlete": "Ding Ning",
    "country": "China",
    "medals": {
      "gold": 1,
      "silver": 1,
      "bronze": 0,
      "total": 2
    },
    "medals_by_year": {
      "2012": {
        "gold": 1,
        "silver": 1,
        "bronze": 0,
        "total": 2
      }
    }
  },
  {
    "athlete": "Kong Linghui",
    "country": "China",
    "medals": {
      "gold": 1,
      "silver": 1,
      "bronze": 0,
      "total": 2
    },
    "medals_by_year": {
      "2000": {
        "gold": 1,
        "silver": 1,
        "bronze": 0,
        "total": 2
      }
    }
  },
  {
    "athlete": "Li Ju",
    "country": "China",
    "medals": {
      "gold": 1,
      "silver": 1,
      "bronze": 0,
      "total": 2
    },
    "medals_by_year": {
      "2000": {
        "gold": 1,
        "silver": 1,
        "bronze": 0,
        "total": 2
      }
    }
  },
  {
    "athlete": "Chen Qi",
    "country": "China",
    "medals": {
      "gold": 1,
      "silver": 0,
      "bronze": 0,
      "total": 1
    },
    "medals_by_year": {
      "2004": {
        "gold": 1,
        "silver": 0,
        "bronze": 0,
        "total": 1
      }
    }
  },
  {
    "athlete": "Ma Long",
    "country": "China",
    "medals": {
      "gold": 1,
      "silver": 0,
      "bronze": 0,
      "total": 1
    },
    "medals_by_year": {
      "2012": {
        "gold": 1,
        "silver": 0,
        "bronze": 0,
        "total": 1
      }
    }
  },
  {
    "athlete": "Yan Sen",
    "country": "China",
    "medals": {
      "gold": 1,
      "silver": 0,
      "bronze": 0,
      "total": 1
    },
    "medals_by_year": {
      "2000": {
        "gold": 1,
        "silver": 0,
        "bronze": 0,
        "total": 1
      }
    }
  },
  {
    "athlete": "Dmitrij Ovtcharov",
    "country": "Germany",
    "medals": {
      "gold": 0,
      "silver": 1,
      "bronze": 2,
      "total": 3
    },
    "medals_by_year": {
      "2008": {
        "gold": 0,
        "silver": 1,
        "bronze": 0,
        "total": 1
      },
      "2012": {
        "gold": 0,
        "silver": 0,
        "bronze": 2,
        "total": 2
      }
    }
  }
]